[
    {
        "tmdb_key": "d48cfffeaefab8031ebc14b8dbabf146"
    },
    {
        "subdl_key": "TnGKoIbM2DAwrw9IrYF3OYyMBRqBWr1y"
    },
    {
        "host": "https://smart.dukoow.net/c/",
        "mac": "00:1A:79:04:2E:E9",
        "type": 1,
        "entryPoint": "portal.php"
    },
    {
        "host": "https://smart.dukoow.net/c/",
        "mac": "00:1A:79:05:C5:C8",
        "type": 1
    },
    {
        "host": "https://smart.dukoow.net/c/",
        "mac": "00:1A:79:03:03:0D",
        "type": 1,
        "entryPoint": "portal.php"
    },
    {
        "host": "http://cmjl.online:8080/",
        "mac": "00:1A:79:70:0C:78",
        "type": 1,
        "entryPoint": "portal.php"
    },
    {
        "host": "http://600600.org:8080/",
        "mac": "00:1A:79:B3:0B:BD",
        "type": 1,
        "entryPoint": "portal.php"
    },
    {
        "host": "Host: http://stalker.ugoiptv.com/",
        "mac": "00:1A:79:AC:86:27",
        "type": 1
    },
    {
        "host": "http://rufus.zone/stalker_portal/",
        "mac": "00:1A:79:77:81:49",
        "type": 1,
        "entryPoint": "stalker_portal/server/load.php"
    },
    {
        "host": "http://ip.xtremetv.eu:8000/",
        "mac": "00:1A:79:55:85:0D",
        "type": 1,
        "entryPoint": "portal.php"
    },
    {
        "host": "http://mag.ottcst.com:80/",
        "mac": "00:1A:79:72:6B:FB",
        "type": 1,
        "entryPoint": "portal.php"
    },
    {
        "host": "http://wiki-ott.org:8789/c/",
        "mac": "00:1A:79:A1:35:D4",
        "type": 1,
        "entryPoint": "portal.php"
    },
    {
        "host": "http://4kgoott.com:2052/",
        "mac": "00:1A:79:6B:EB:DD",
        "type": 1
    },
    {
        "host": "http://4kgoott.com:2052/",
        "mac": "00:1A:79:3A:AD:E3",
        "type": 1,
        "entryPoint": "portal.php"
    },
    {
        "host": "http://midn.asdasgrasic.store",
        "username": "TBTN543PB8",
        "password": "WjQbfXMB5E",
        "type": 2,
        "is_trial": 0,
        "created_at": 1728719299,
        "end_date": 1760255408,
        "max_connections": 1
    },
    {
        "host": "http://midn.asdasgrasic.store",
        "username": "PEPEADYCTOS2024",
        "password": "Pepeadyctos2024",
        "type": 2,
        "is_trial": 0,
        "created_at": 1725969276,
        "end_date": 1757509257,
        "max_connections": 1
    },
    {
        "host": "http://midn.asdasgrasic.store",
        "username": "Geno317AD",
        "password": "Apyamdkke121",
        "type": 2,
        "is_trial": 0,
        "created_at": 1710691828,
        "end_date": 1742239099,
        "max_connections": 1
    },
    {
        "host": "http://midn.asdasgrasic.store",
        "username": "ja36701",
        "password": "NdRFdV4gMb",
        "type": 2,
        "is_trial": 0,
        "created_at": 1709697242,
        "end_date": 1741564642,
        "max_connections": 3
    },
    {
        "host": "http://midn.asdasgrasic.store",
        "username": "wa922604",
        "password": "Ufu8gRAFcXb",
        "type": 2,
        "is_trial": 0,
        "created_at": 1727009499,
        "end_date": 1758549092,
        "max_connections": 3
    }
]